<?xml version="1.0" encoding="UTF-8" standalone="no"?>
<svg
   class="extlink"
   width="12"
   height="12"
   version="1.1"
   id="svg2"
   sodipodi:docname="extlink.svg"
   inkscape:version="1.3.2 (091e20ef0f, 2023-11-25)"
   xmlns:inkscape="http://www.inkscape.org/namespaces/inkscape"
   xmlns:sodipodi="http://sodipodi.sourceforge.net/DTD/sodipodi-0.dtd"
   xmlns="http://www.w3.org/2000/svg"
   xmlns:svg="http://www.w3.org/2000/svg">
  <defs
     id="defs2" />
  <sodipodi:namedview
     id="namedview2"
     pagecolor="#505050"
     bordercolor="#ffffff"
     borderopacity="1"
     inkscape:showpageshadow="0"
     inkscape:pageopacity="0"
     inkscape:pagecheckerboard="1"
     inkscape:deskcolor="#d1d1d1"
     inkscape:current-layer="svg2" />
  <style
     type="text/css"
     id="style1">
path { stroke: #dc8add; }
@media (prefers-color-scheme: dark) {
  path { stroke: #613583; }
}
</style>
  <path
     d="M4 2H3a2 2 135 0 0-2 2v5a2 2 45 0 0 2 2h5a2 2 135 0 0 2-2V8"
     style="fill:none;stroke-width:2;stroke-linecap:round;stroke-linejoin:round;stroke-dasharray:none;stroke-opacity:0.66845024;stroke:#3584e4"
     id="path1" />
  <path
     d="M7 1h4v4M6 6l5-5"
     style="fill:none;stroke-width:2;stroke-linecap:round;stroke-linejoin:round;stroke-opacity:0.66845024;stroke-dasharray:none;stroke:#3584e4"
     id="path2" />
</svg>
